{
    "httpServerOptions": {
        "port": 8080,
        "host": "practice.aqualung.mif.pg.gda.pl"
    },
    "database": { 
        "host ": "practice.aqualung.mif.pg.gda.pl",
        "port": 3306,
        "username": "mir",
        "database": "mir",
        "password": "iogr12mir"
    },
    "serviceView": {
        "webRoot": "./public_html_20161203",
        "indexPath": "/index.html"
    },
    "fileConfig": {
        "pdfPath": "/pdf/",
        "pdfSrc": "./pdfFiles/",
        "pdfIn": "./pdfFiles/pdf/"
    }
}